Obróbka danych
…
Grupowanie wzaględem kilku grup

Sprawdzamy średnie opóźnienie odlotu oraz przylotu względem linii lotniczej oraz destynacji oraz porządkujemy od najbardziej punktualnych.

hflights %>% group_by(UniqueCarrier, Dest) %>%
  summarise(avg_dep_del = mean(DepDelay, na.rm = T),
            avg_arr_del = mean(ArrDelay, na.rm = T)) %>%
  arrange(avg_arr_del)

## # A tibble: 241 x 4
## # Groups:   UniqueCarrier [15]
##    UniqueCarrier  Dest avg_dep_del avg_arr_del
##            <chr> <chr>       <dbl>       <dbl>
##  1            UA   MCI -3.00000000  -30.000000
##  2            FL   BKG -3.20183486  -16.233645
##  3            CO   CVG -4.00000000  -15.000000
##  4            OO   BFL  5.05765408  -13.198807
##  5            YV   PHX -7.00000000  -13.000000
##  6            YV   IAD -0.14285714  -11.428571
##  7            XE   TPA -3.66666667  -11.000000
##  8            XE   GRK  1.62500000   -8.300000
##  9            CO   STL  7.00000000   -8.000000
## 10            CO   TUS -0.03448276   -7.913793
## # ... with 231 more rows
…
